{
  "appId": "com.trdr.app",
  "appName": "trdr",
  "bundledWebRuntime": false,
  "npmClient": "npm",
  "webDir": "www",
  "plugins": {
    "SplashScreen": {
      "launchShowDuration": 3000,
      "launchAutoHide": true,
      "backgroundColor": "#ffffffff",
      "androidSplashResourceName": "splash",
      "androidScaleType": "CENTER_CROP",
      "androidSpinnerStyle": "horizontal",
      "spinnerColor": "#3e3560",
      "showSpinner": true,
      "splashFullScreen": true,
      "splashImmersive": true
    }
  },
  "cordova": {}
}
